[gd_scene format=2]

[node name="Crafting" type="Panel"]
margin_left = 578.0
margin_right = 863.0
margin_bottom = 268.0
size_flags_horizontal = 3
size_flags_vertical = 3

[node name="Label" type="Label" parent="."]
anchor_right = 1.0
margin_bottom = 14.0
text = "Crafting"
align = 1

[node name="MarginContainer" type="MarginContainer" parent="."]
anchor_right = 1.0
anchor_bottom = 1.0
margin_top = 24.0
custom_constants/margin_right = 8
custom_constants/margin_top = 8
custom_constants/margin_left = 8
custom_constants/margin_bottom = 8

[node name="ScrollContainer" type="ScrollContainer" parent="MarginContainer"]
margin_left = 8.0
margin_top = 8.0
margin_right = 277.0
margin_bottom = 236.0
size_flags_horizontal = 3
size_flags_vertical = 3
scroll_horizontal_enabled = false

[node name="Label2" type="Label" parent="MarginContainer/ScrollContainer"]
margin_right = 257.0
margin_bottom = 439.0
size_flags_horizontal = 3
size_flags_vertical = 6
text = "Crafting is currently unimplemented.

You'll find Instructions here instead.

1. Start at the Mining station. The leftmost button toggles which ore is due to be mined. Pressing Mine will then mine one unit of that ore. This selection also affects automining.

2. Drag a chosen ore down to the Minting station to begin creating currency out of the ore.

3. Use the currency to buy upgrades from the Upgrade station.

4. Optionally start refining ores into materials by dragging them into the Refining station instead.

5. The end goal was going to be to craft space things with the refined materials but I didn't get to that. For now you'll just have to enjoy watching the progress bars fill up :)"
align = 1
autowrap = true
