[gd_scene load_steps=4 format=2]

[ext_resource path="res://stations/Processing.gd" type="Script" id=1]
[ext_resource path="res://ui/DropArea.tscn" type="PackedScene" id=2]
[ext_resource path="res://ui/OreInfo.tscn" type="PackedScene" id=3]

[node name="Processing" type="Panel"]
anchor_top = 1.0
anchor_bottom = 1.0
margin_top = -278.0
margin_right = 233.0
mouse_filter = 2
script = ExtResource( 1 )

[node name="Label" type="Label" parent="."]
anchor_left = 0.5
anchor_right = 0.5
margin_left = -54.5
margin_right = 54.5
margin_bottom = 14.0
text = "Processing"
align = 1

[node name="DropArea" parent="." instance=ExtResource( 2 )]
anchor_left = 0.5
anchor_top = 0.5
anchor_right = 0.5
anchor_bottom = 0.5

[node name="Timer" type="Timer" parent="."]

[node name="Items" type="VBoxContainer" parent="."]
anchor_top = 1.0
anchor_right = 1.0
anchor_bottom = 1.0
grow_vertical = 0
mouse_filter = 2

[node name="OreInfo" parent="." instance=ExtResource( 3 )]

[node name="Cancel" type="Button" parent="."]
anchor_left = 0.5
anchor_top = 0.5
anchor_right = 0.5
anchor_bottom = 0.5
margin_left = -10.0
margin_top = 46.0
margin_right = 10.0
margin_bottom = 66.0
mouse_filter = 2
text = "X"

[connection signal="item_docked" from="DropArea" to="." method="_on_DropArea_item_docked"]
[connection signal="timeout" from="Timer" to="." method="_on_Timer_timeout"]
[connection signal="pressed" from="Cancel" to="." method="_on_Cancel_pressed"]
