[gd_resource type="AtlasTexture" load_steps=2 format=2]

[ext_resource path="res://addons/nframework/assets/themes/nyx-ui.png" type="Texture" id=1]

[resource]
atlas = ExtResource( 1 )
region = Rect2( 0, 16, 16, 16 )
