[gd_resource type="Theme" load_steps=5 format=2]

[ext_resource path="res://addons/nframework/assets/fonts/m5x7_16.tres" type="DynamicFont" id=1]

[sub_resource type="StyleBoxFlat" id=1]
content_margin_left = 8.0
content_margin_right = 8.0
content_margin_top = 4.0
content_margin_bottom = 4.0
bg_color = Color( 0, 0, 0, 0 )
border_width_left = 1
border_width_top = 1
border_width_right = 1
border_width_bottom = 1
border_color = Color( 1, 1, 1, 0.694118 )
corner_radius_top_left = 4
corner_radius_top_right = 4
corner_radius_bottom_right = 4
corner_radius_bottom_left = 4
anti_aliasing = false

[sub_resource type="StyleBoxFlat" id=2]
content_margin_left = 8.0
content_margin_right = 8.0
content_margin_top = 4.0
content_margin_bottom = 4.0
bg_color = Color( 0.254902, 0.243137, 0.286275, 1 )
border_width_left = 2
border_width_top = 2
border_width_right = 2
border_width_bottom = 2
border_color = Color( 0.3649, 0.3485, 0.41, 1 )
border_blend = true
corner_radius_top_left = 4
corner_radius_top_right = 4
corner_radius_bottom_right = 4
corner_radius_bottom_left = 4
anti_aliasing = false

[sub_resource type="StyleBoxFlat" id=3]
content_margin_left = 8.0
content_margin_right = 8.0
content_margin_top = 4.0
content_margin_bottom = 4.0
bg_color = Color( 0.1602, 0.153, 0.18, 1 )
border_width_left = 2
border_width_top = 2
border_width_right = 2
border_width_bottom = 2
border_color = Color( 0, 0, 0, 1 )
border_blend = true
corner_radius_top_left = 4
corner_radius_top_right = 4
corner_radius_bottom_right = 4
corner_radius_bottom_left = 4
anti_aliasing = false

[resource]
default_font = ExtResource( 1 )
Button/colors/font_color = Color( 1, 1, 1, 1 )
Button/colors/font_color_disabled = Color( 0.901961, 0.901961, 0.901961, 0.2 )
Button/colors/font_color_hover = Color( 1, 1, 1, 1 )
Button/colors/font_color_pressed = Color( 1, 1, 1, 1 )
Button/constants/hseparation = 2
Button/fonts/font = null
Button/styles/disabled = null
Button/styles/focus = SubResource( 1 )
Button/styles/hover = SubResource( 2 )
Button/styles/normal = SubResource( 2 )
Button/styles/pressed = SubResource( 3 )
CheckButton/colors/font_color = Color( 0.88, 0.88, 0.88, 1 )
CheckButton/colors/font_color_disabled = Color( 0.9, 0.9, 0.9, 0.2 )
CheckButton/colors/font_color_hover = Color( 0.94, 0.94, 0.94, 1 )
CheckButton/colors/font_color_hover_pressed = Color( 1, 1, 1, 1 )
CheckButton/colors/font_color_pressed = Color( 1, 1, 1, 1 )
CheckButton/constants/check_vadjust = 0
CheckButton/constants/hseparation = 4
CheckButton/fonts/font = null
CheckButton/icons/off = null
CheckButton/icons/off_disabled = null
CheckButton/icons/on = null
CheckButton/icons/on_disabled = null
CheckButton/styles/disabled = null
CheckButton/styles/focus = null
CheckButton/styles/hover = null
CheckButton/styles/hover_pressed = null
CheckButton/styles/normal = null
CheckButton/styles/pressed = SubResource( 2 )
HSlider/icons/grabber = null
HSlider/icons/grabber_disabled = null
HSlider/icons/grabber_highlight = null
HSlider/icons/tick = null
HSlider/styles/grabber_area = null
HSlider/styles/grabber_area_highlight = null
HSlider/styles/slider = null
