[gd_scene load_steps=3 format=2]

[ext_resource path="res://addons/nframework/tests/textbox/TextboxTest.gd" type="Script" id=1]
[ext_resource path="res://addons/nframework/plugins/TextBox.tscn" type="PackedScene" id=2]

[node name="Node" type="Node"]
script = ExtResource( 1 )

[node name="TextBox" parent="." instance=ExtResource( 2 )]
